<?xml version="1.0" encoding="UTF-8" standalone="no"?>
<!DOCTYPE svg PUBLIC "-//W3C//DTD SVG 1.1//EN" "http://www.w3.org/Graphics/SVG/1.1/DTD/svg11.dtd">
<svg width="100%" height="100%" viewBox="0 0 20 33" version="1.1" xmlns="http://www.w3.org/2000/svg" xmlns:xlink="http://www.w3.org/1999/xlink" xml:space="preserve" xmlns:serif="http://www.serif.com/" style="fill-rule:evenodd;clip-rule:evenodd;stroke-linecap:round;stroke-linejoin:round;stroke-miterlimit:1.5;">
    <g transform="matrix(1,0,0,1,-3576.55,-5868.13)">
        <g transform="matrix(1,0,0,1.33333,2587.34,5538.3)">
            <g transform="matrix(4.44698e-17,-0.544685,0.726247,3.33523e-17,-3408.31,844.357)">
                <path d="M1091.29,6077.47L1073.68,6059.86L1056.07,6077.47" style="fill:none;stroke:rgb(202,214,225);stroke-width:9.44px;"/>
            </g>
        </g>
    </g>
</svg>
