<?xml version="1.0" encoding="UTF-8" standalone="no"?>
<!DOCTYPE svg PUBLIC "-//W3C//DTD SVG 1.1//EN" "http://www.w3.org/Graphics/SVG/1.1/DTD/svg11.dtd">
<svg width="100%" height="100%" viewBox="0 0 48 48" version="1.1" xmlns="http://www.w3.org/2000/svg" xmlns:xlink="http://www.w3.org/1999/xlink" xml:space="preserve" xmlns:serif="http://www.serif.com/" style="fill-rule:evenodd;clip-rule:evenodd;stroke-linejoin:round;stroke-miterlimit:1.41421;">
    <g transform="matrix(1,0,0,1,-4778.74,-3919.94)">
        <g transform="matrix(1,0,0,1.33333,2587.34,3872.6)">
            <g transform="matrix(0.105786,0,0,0.105786,1992.91,35.5104)">
                <g id="XMLID_503_" transform="matrix(1,0,0,0.75,1876.38,0)">
                    <path d="M440.498,173.103C446.356,167.246 446.356,157.748 440.498,151.89L417.987,129.379C412.896,124.288 404.903,123.533 398.949,127.579L351.617,159.749L383.592,112.097C387.585,106.146 386.811,98.2 381.742,93.133L332.912,44.303C328.404,39.795 321.54,38.628 315.798,41.395L307.355,45.46L311.398,36.49C313.961,30.805 312.739,24.129 308.33,19.719L293.002,4.393C287.145,-1.464 277.647,-1.464 271.789,4.393L152.729,123.452L321.439,292.162L440.498,173.103Z" style="fill:rgb(202,214,225);fill-rule:nonzero;"/>
                </g>
                <g id="XMLID_1199_" transform="matrix(1,0,0,0.75,1876.38,0)">
                    <path d="M130.56,145.622L96.094,180.088C93.281,182.901 91.7,186.716 91.7,190.694C91.7,194.672 93.28,198.488 96.094,201.3L128.788,233.994C135.087,240.293 138.142,248.986 137.17,257.843C136.199,266.694 131.327,274.52 123.804,279.316C27.736,340.554 18.781,349.51 15.839,352.453C-5.28,373.571 -5.28,407.933 15.839,429.053C36.979,450.193 71.343,450.151 92.439,429.053C95.383,426.11 104.341,417.151 165.575,321.088C170.359,313.583 178.182,308.722 187.037,307.749C195.92,306.78 204.612,309.82 210.896,316.103L243.59,348.797C249.447,354.654 258.946,354.654 264.803,348.797L299.27,314.33L130.56,145.622ZM70.05,404.825C61.77,413.105 48.346,413.105 40.067,404.825C31.787,396.545 31.787,383.121 40.067,374.842C48.347,366.562 61.771,366.562 70.05,374.842C78.33,383.121 78.33,396.545 70.05,404.825Z" style="fill:rgb(202,214,225);fill-rule:nonzero;"/>
                </g>
            </g>
        </g>
    </g>
</svg>
